totorial_12_up_down_counter/test_run_dir/MyXOR_Test141515460/UpDownCounter.vcd
$date
2023-02-15T14:02+0000
$end
$version
0.2
$end
$comment

$end
$timescale 1ns  $end
$scope module UpDownCounter $end
 $var wire 4 ! io_out $end
 $var wire 4 " count $end
 $var wire 1 # _T $end
 $var wire 1 $ io_down $end
 $var wire 4 % _GEN_1 $end
 $var wire 1 & clock $end
 $var wire 1 ' io_up $end
 $var wire 4 ( _GEN_0 $end
 $var wire 1 ) reset $end
$upscope $end
$enddefinitions $end
$dumpvars
0)
0&
0#
b0000 (
0'
b0000 !
b0000 %
b0000 "
0$
$end
#0
1#
1)
#1
1&
#6
0&
#11
1&
#16
0&
#21
1&
#26
0&
#31
1&
#36
0&
#41
1&
#46
b0001 %
0&
1'
0)
#51
b0001 !
b0010 %
b0001 "
1&
b0001 (
#56
b0000 %
0&
0#
0'
1$
b0000 (
#61
b0000 !
b0000 "
1&
#66
0&
1#
0$
#71
1&
#76
b0001 %
0&
1'
#81
b0001 !
b0010 %
b0001 "
1&
b0001 (
#86
b0000 %
0&
0#
0'
1$
b0000 (
#91
b0000 !
b0000 "
1&
#96
0&
1#
0$
#101
1&
#106
b0001 %
0&
1'
#111
b0001 !
b0010 %
b0001 "
1&
b0001 (
#116
b0000 %
0&
0#
0'
1$
b0000 (
#121
b0000 !
b0000 "
1&
#126
0&
1#
0$
#131
1&
#136
b0001 %
0&
1'
#141
b0001 !
b0010 %
b0001 "
1&
b0001 (
#146
b0000 %
0&
0#
0'
1$
b0000 (
#151
b0000 !
b0000 "
1&
#156
0&
1#
0$
#161
1&
#166
b0001 %
0&
1'
#171
b0001 !
b0010 %
b0001 "
1&
b0001 (
#176
b0000 %
0&
0#
0'
1$
b0000 (
#181
b0000 !
b0000 "
1&
#186
0&
1#
0$
#191
1&
#196
b0001 %
0&
1'
#201
b0001 !
b0010 %
b0001 "
1&
b0001 (
#206
b0000 %
0&
0#
0'
1$
b0000 (
#211
b0000 !
b0000 "
1&
#216
0&
1#
0$
#221
1&
#226
b0001 %
0&
1'
#231
b0001 !
b0010 %
b0001 "
1&
b0001 (
#236
b0000 %
0&
0#
0'
1$
b0000 (
#241
b0000 !
b0000 "
1&
#246
0&
1#
0$
#251
1&
#256
b0001 %
0&
1'
#261
b0001 !
b0010 %
b0001 "
1&
b0001 (
#266
b0000 %
0&
0#
0'
1$
b0000 (
#271
b0000 !
b0000 "
1&
#276
0&
1#
0$
#281
1&
#286
b0001 %
0&
1'
#291
b0001 !
b0010 %
b0001 "
1&
b0001 (
#296
b0000 %
0&
0#
0'
1$
b0000 (
#301
b0000 !
b0000 "
1&
#306
0&
1#
0$
#311
1&
#316
b0001 %
0&
1'
#321
b0001 !
b0010 %
b0001 "
1&
b0001 (
#326
b0000 %
0&
0#
0'
1$
b0000 (
#331
b0000 !
b0000 "
1&
#336
0&
1#
0$
#341
1&
#346
b0001 %
0&
1'
#351
b0001 !
b0010 %
b0001 "
1&
b0001 (
#356
b0000 %
0&
0#
0'
1$
b0000 (
#361
b0000 !
b0000 "
1&
