totorials/totorial_13_up_down_counter/test_run_dir/MyXOR_Test517385349/UpDownCounter.vcd
$date
2023-02-15T14:08+0000
$end
$version
0.2
$end
$comment

$end
$timescale 1ns  $end
$scope module UpDownCounter $end
 $var wire 4 ! io_out $end
 $var wire 4 " count $end
 $var wire 1 # _T $end
 $var wire 1 $ io_down $end
 $var wire 4 % _GEN_1 $end
 $var wire 1 & clock $end
 $var wire 1 ' io_up $end
 $var wire 4 ( _GEN_0 $end
 $var wire 1 ) reset $end
$upscope $end
$enddefinitions $end
$dumpvars
0)
0&
0#
b0000 (
0'
b0000 !
b0000 %
b0000 "
0$
$end
#0
1#
1)
#1
1&
#6
0&
#11
1&
#16
0&
#21
1&
#26
0&
#31
1&
#36
0&
#41
1&
#46
b0001 %
0&
1'
0)
#51
b0001 !
b0010 %
b0001 "
1&
b0001 (
#56
0&
#61
b0010 !
b0011 %
b0010 "
1&
b0010 (
#66
0&
#71
b0011 !
b0100 %
b0011 "
1&
b0011 (
#76
0&
#81
b0100 !
b0101 %
b0100 "
1&
b0100 (
#86
0&
#91
b0101 !
b0110 %
b0101 "
1&
b0101 (
#96
0&
#101
b0110 !
b0111 %
b0110 "
1&
b0110 (
#106
b0101 %
0&
0#
0'
1$
b0101 (
#111
b0101 !
b0100 %
b0101 "
1&
b0100 (
#116
0&
#121
b0100 !
b0011 %
b0100 "
1&
b0011 (
#126
0&
#131
b0011 !
b0010 %
b0011 "
1&
b0010 (
#136
0&
#141
b0010 !
b0001 %
b0010 "
1&
b0001 (
